{
  "$schema": "https://themost-framework.github.io/themost/models/2018/2/schema.json",
  "@id": "https://universis.io/schemas/DiscordAccount",
  "name": "DiscordAccount",
  "title": "DiscordAccounts",
  "hidden": true,
  "sealed": false,
  "abstract": false,
  "implements": "InstantMessageAccount",
  "version": "1.0",
  "fields": [
    
  ],
  "constraints": [
    {
        "type": "unique",
        "fields": [
            "account"
        ]
    }
  ],
  "privileges": [
      {
          "mask": 15,
          "type": "global"
      },
      {
          "mask": 15,
          "type": "global",
          "account": "Administrators"
      },
      {
          "mask": 1,
          "type": "self",
          "filter": "account eq me()"
      }
  ]
}
